%YAML 1.1
%TAG !u! tag:unity3d.com,2011:
--- !u!1045 &1
EditorBuildSettings:
  m_ObjectHideFlags: 0
  serializedVersion: 2
  m_Scenes:
  - enabled: 0
    path: Assets/UFPS/Base/Content/Levels/DemoScene3/UFPS_DemoScene3.unity
    guid: 61f7e4566a906a7489527707297aa7c1
  - enabled: 0
    path: Assets/UFPS/Base/Content/Levels/DemoScene1/UFPS_DemoScene1.unity
    guid: 3cee29b1a89f344f2b197c7349233aac
  - enabled: 0
    path: Assets/UFPS/Base/Content/Levels/DemoScene2/UFPS_DemoScene2.unity
    guid: 81d1fcb2f1405244c876c13c8fbef2f7
  - enabled: 0
    path: Assets/UFPS/Base/Content/Levels/CleanScene/UFPS_CleanScene.unity
    guid: 71bb532372ac42e4d896b25f1d04a5a6
  - enabled: 0
    path: Assets/UFPS/Base/Content/Levels/SkyCity/UFPS_SkyCity.unity
    guid: 817b76bab56407b4481cb752990d05b1
  - enabled: 0
    path: Assets/UFPS/Multiplayer/Content/Levels/Examples/UFPSMP_GameModes.unity
    guid: 00000000000000000000000000000000
  - enabled: 0
    path: Assets/UFPS/Multiplayer/Content/Levels/HelipadEscape/UFPSMP_HelipadEscape.unity
    guid: 00000000000000000000000000000000
  - enabled: 0
    path: Assets/UFPS/Multiplayer/Content/Levels/Examples/UFPSMP_SimpleChat.unity
    guid: 00000000000000000000000000000000
  - enabled: 0
    path: Assets/UFPS/Base/Content/Levels/DemoScene3/UFPS_DemoScene3.unity
    guid: 61f7e4566a906a7489527707297aa7c1
  - enabled: 0
    path: Assets/UFPS/Multiplayer/Content/Levels/HelipadEscape/UFPSMP_HelipadEscape_Menu.unity
    guid: 00000000000000000000000000000000
  - enabled: 0
    path: Assets/UFPS/Multiplayer/Content/Levels/HelipadEscape/UFPSMP_HelipadEscape.unity
    guid: 00000000000000000000000000000000
  - enabled: 0
    path: Assets/UFPS/Multiplayer/Content/Levels/Examples/UFPSMP_TestMap_Menu.unity
    guid: 00000000000000000000000000000000
  - enabled: 0
    path: Assets/UFPS/Multiplayer/Content/Levels/Examples/UFPSMP_TestMap.unity
    guid: 00000000000000000000000000000000
  - enabled: 1
    path: Assets/LISF Gallery.unity
    guid: 35726f8f15542bc4f8e30ede96333889
