%YAML 1.1
%TAG !u! tag:unity3d.com,2011:
--- !u!114 &11400000
MonoBehaviour:
  m_ObjectHideFlags: 0
  m_PrefabParentObject: {fileID: 0}
  m_PrefabInternal: {fileID: 0}
  m_GameObject: {fileID: 0}
  m_Enabled: 1
  m_EditorHideFlags: 0
  m_Script: {fileID: 11500000, guid: f5a2543a119f842959d20e84db3140dd, type: 3}
  m_Name: Gallery_InventoryManager
  m_EditorClassIdentifier: 
  items: []
  bins: []
  invVars: []
  unhandledCombine: {fileID: 0}
  unhandledHotspot: {fileID: 0}
  passUnhandledHotspotAsParameter: 0
  unhandledGive: {fileID: 0}
  recipes: []
